There are 100000 samples
using type <class 'float'>
========================================
2021-08-24 20:46:28 - Starting log
========================================
========================================
2021-08-24 20:46:28 - End Program
Elapsed time: 0:00:00.495370
========================================

There are 100000 samples
using type <class 'float'>
========================================
2021-08-24 20:46:57 - Starting log
========================================
========================================
2021-08-24 20:46:58 - End Program
Elapsed time: 0:00:00.569085
========================================

There are 100000 samples
using type <class 'float'>
========================================
2021-08-24 20:47:25 - Starting log
========================================
========================================
2021-08-24 20:47:26 - End Program
Elapsed time: 0:00:00.479155
========================================

There are 100000 samples
using type <class 'float'>
========================================
2021-08-24 21:28:19 - Starting log
========================================
========================================
2021-08-24 21:28:20 - End Program
Elapsed time: 0:00:00.508188
========================================

There are 100000 samples
using type <class 'float'>
========================================
2021-08-24 21:28:23 - Starting log
========================================
========================================
2021-08-24 21:28:23 - End Program
Elapsed time: 0:00:00.569789
========================================
