bin/CHeterodyning
Running Unthreaded Test
Precision sizeof 4
Total amount of samples: 100000
Clock resolution: 1 ns
Time: 10.507000 ms
End Unthreaded Test

bin/CHeterodyning_threaded
Clock resolution: 1 ns
Threads created :-)
All threads have quit
Time taken for threads to run = 16.77 ms

There are 100000 samples
using type <class 'float'>
========================================
2021-08-20 12:00:51 - Starting log
========================================
========================================
2021-08-20 12:00:52 - End Program
Elapsed time: 0:00:00.573440
========================================
